dump.vcd
$date
	Sat Oct 21 10:58:30 2023
$end
$version
	Bluespec VCD dumper 2.1
$end
$timescale
	1 us
$end
$scope module main $end
$scope module top $end
$var reg 1 ! CLK $end
$var reg 1 ! CLK $end
$var reg 1 " RST_N $end
$var reg 32 # b__h202 $end
$var reg 33 $ b__h376 $end
$var reg 1 % lEDController_led_on__h147 $end
$var reg 1 , checked $end
$var reg 33 - cycles $end
$var reg 32 . lEDController_blink_ctr $end
$var reg 1 / lEDController_ctrl_on $end
$var reg 1 0 lEDController_led_on $end
$var reg 1 1 started $end
$upscope $end
$upscope $end
$enddefinitions $end
1!
0"
b10101010101010101010101010101010 #
b10101010101010101010101010101010 $
0%
0,
b0 -
b0 .
0/
00
01
b0 $
#5
0!
1"
#10
b0 #
b1 $
1!
b1 -
1/
11
#15
0!
#20
b1 #
b10 $
1%
1!
b10 -
b1 .
10
#25
0!
#30
b11 $
0%
1!
b11 -
00
#35
0!
#40
b10 #
b100 $
1%
1!
b100 -
b10 .
10
#45
0!
#50
b101 $
0%
1!
b101 -
00
#55
0!
#60
b11 #
b110 $
1%
1!
b110 -
b11 .
10
#65
0!
#70
b111 $
0%
1!
b111 -
00
#75
0!
#80
b100 #
b1000 $
1%
1!
b1000 -
b100 .
10
#85
0!
#90
b1001 $
0%
1!
b1001 -
00
#95
0!
#100
b101 #
b1010 $
1%
1!
b1010 -
b101 .
10
#105
0!
#110
b1011 $
0%
1!
b1011 -
00
#115
0!
#120
b110 #
b1100 $
1%
1!
b1100 -
b110 .
10
#125
0!
#130
b1101 $
0%
1!
b1101 -
00
#135
0!
#140
b111 #
b1110 $
1%
1!
b1110 -
b111 .
10
#145
0!
#150
b1111 $
0%
1!
b1111 -
00
#155
0!
#160
b1000 #
b10000 $
1%
1!
b10000 -
b1000 .
10
#165
0!
#170
b10001 $
0%
1!
b10001 -
00
#175
0!
#180
b1001 #
b10010 $
1%
1!
b10010 -
b1001 .
10
#185
0!
#190
b10011 $
0%
1!
b10011 -
00
#195
0!
#200
b1010 #
b10100 $
1%
1!
b10100 -
b1010 .
10
#205
0!
#210
b10101 $
0%
1!
b10101 -
00
#215
0!
#220
b1011 #
b10110 $
1%
1!
b10110 -
b1011 .
10
#225
0!
#230
b10111 $
0%
1!
b10111 -
00
#235
0!
#240
b1100 #
b11000 $
1%
1!
b11000 -
b1100 .
10
#245
0!
#250
b11001 $
0%
1!
b11001 -
00
#255
0!
#260
b1101 #
b11010 $
1%
1!
b11010 -
b1101 .
10
#265
0!
#270
b11011 $
0%
1!
b11011 -
00
#275
0!
#280
b1110 #
b11100 $
1%
1!
b11100 -
b1110 .
10
#285
0!
#290
b11101 $
0%
1!
b11101 -
00
#295
0!
#300
b1111 #
b11110 $
1%
1!
b11110 -
b1111 .
10
#305
0!
#310
b11111 $
0%
1!
b11111 -
00
#315
0!
#320
b10000 #
b100000 $
1%
1!
b100000 -
b10000 .
10
#325
0!
#330
b100001 $
0%
1!
b100001 -
00
#335
0!
#340
b10001 #
b100010 $
1%
1!
b100010 -
b10001 .
10
#345
0!
#350
b100011 $
0%
1!
b100011 -
00
#355
0!
#360
b10010 #
b100100 $
1%
1!
b100100 -
b10010 .
10
#365
0!
#370
b100101 $
0%
1!
b100101 -
00
#375
0!
#380
b10011 #
b100110 $
1%
1!
b100110 -
b10011 .
10
#385
0!
#390
b100111 $
0%
1!
b100111 -
00
#395
0!
#400
b10100 #
b101000 $
1%
1!
b101000 -
b10100 .
10
#405
0!
#410
b101001 $
0%
1!
b101001 -
00
#415
0!
#420
b10101 #
b101010 $
1%
1!
b101010 -
b10101 .
10
#425
0!
#430
b101011 $
0%
1!
b101011 -
00
#435
0!
#440
b10110 #
b101100 $
1%
1!
b101100 -
b10110 .
10
#445
0!
#450
b101101 $
0%
1!
b101101 -
00
#455
0!
#460
b10111 #
b101110 $
1%
1!
b101110 -
b10111 .
10
#465
0!
#470
b101111 $
0%
1!
b101111 -
00
#475
0!
#480
b11000 #
b110000 $
1%
1!
b110000 -
b11000 .
10
#485
0!
#490
b110001 $
0%
1!
b110001 -
00
#495
0!
#500
b11001 #
b110010 $
1%
1!
b110010 -
b11001 .
10
#505
0!
#510
b110011 $
1!
b110011 -
00
#515
0!
#520
1!
1,
0/
